Research Methods (year 1) – Visualization Walk through
…
Then, tell R where your data are saved on your computer. In the tab menu above click on: Session > Set Working Directory > Choose Directory ... and browse to the directory with your data and click on Open. There will be a function appearing in the console setwd(...).

Loading Data

Load the data frame into a variable, here Df.

Df <- read_csv("data.csv")

If that doesn’t work try the following. In Rstudio’s panels you will find an Environment tap: click on Environment > Import Dataset and choose the option From Text (readr) ... or if your data are stored in an Excel sheet From Excel .... Browse to your data file and in Import Options: change the Name to the target variable Df.

Have a quick peak at the data by typing Df into the console.

Df

## # A tibble: 384 x 5
##    Expression Sex   Attractiveness   Lab Table
##    <chr>      <chr>          <dbl> <dbl> <chr>
##  1 Happy      Male            14.8     1 T1   
##  2 Happy      Male            17.2     1 T1   
##  3 Happy      Male            13.9     1 T1   
##  4 Happy      Male            14.9     1 T1   
##  5 Happy      Male            18.4     1 T1   
##  6 Happy      Male            16.7     1 T1   
##  7 Happy      Male            12.4     1 T2   
##  8 Happy      Male            17.0     1 T2   
##  9 Happy      Male            13.8     1 T2   
## 10 Happy      Male            13.8     1 T2   
## # ... with 374 more rows
…
The name of the y-label was changes to Attractiveness ratings using labs(y = "Attractiveness ratings") and the scale of the y-axis was extended to range from 3 to 21 using ylim(3, 21) which are the minimum and maximum score, respectively.

Aside, note that all these bits need to be combined with a plus sign +.

Lab level visualization

In the next step we plot the data for each lab group individually. First we make a small tweak the Lab variable. The function paste0 adds the number of each lab (1, 2, …) to the string Lab group: and then assigns it (<-) to the old variable Df$Lab.

Df$Lab <- paste0("Lab group: ", Df$Lab)

Check below how the variable has changed and compare to the Df output above.

Df

## # A tibble: 384 x 5
##    Expression Sex   Attractiveness Lab          Table
##    <chr>      <chr>          <dbl> <chr>        <chr>
##  1 Happy      Male            14.8 Lab group: 1 T1   
##  2 Happy      Male            17.2 Lab group: 1 T1   
##  3 Happy      Male            13.9 Lab group: 1 T1   
##  4 Happy      Male            14.9 Lab group: 1 T1   
##  5 Happy      Male            18.4 Lab group: 1 T1   
##  6 Happy      Male            16.7 Lab group: 1 T1   
##  7 Happy      Male            12.4 Lab group: 1 T2   
##  8 Happy      Male            17.0 Lab group: 1 T2   
##  9 Happy      Male            13.8 Lab group: 1 T2   
## 10 Happy      Male            13.8 Lab group: 1 T2   
## # ... with 374 more rows
…
